…
data <- read_csv("thesis_ma_complete.csv", locale=locale(encoding="BIG-5"))

seg <- worker()
data$abstract_cn_seg <- lapply(data$abstract_cn, function(x){seg[x]})

data_unnest <- data %>% unnest(abstract_cn_seg)
data_unnest_detail <- data_unnest %>% group_by(title_cn, abstract_cn_seg) %>% summarize(n = length(abstract_cn_seg)) %>% arrange(desc(n)) %>% select(abstract_cn_seg, n, title_cn)

rmarkdown::paged_table(data_unnest_detail[1:50,])

data_unnest_freq <- data_unnest %>% filter(abstract_cn_seg != stopwordsCN()) %>% group_by(abstract_cn_seg, year) %>% summarize(freq = length(abstract_cn_seg)) %>% arrange(desc(freq, year))

data_unnest_freq[50:100,]

## # A tibble: 51 x 3
## # Groups:   abstract_cn_seg [30]
##    abstract_cn_seg  year  freq
##    <chr>           <dbl> <int>
##  1 在               2006    40
##  2 為               2013    40
##  3 聲調             2007    40
##  4 使用             2012    39
##  5 和               2013    39
##  6 與               2012    39
##  7 不同             2009    38
##  8 我們             2008    38
##  9 結構             2008    38
## 10 語言             2012    38
## # … with 41 more rows
…
